;  LST file generated by mikroListExporter - v.2.0 
; Date/Time: 7/23/2018 10:46:42 AM
;----------------------------------------------

;Address Opcode 	ASM
0x0000	0xF001EF4E  	GOTO        668
0x0004	0x0000      	NOP
0x0006	0x0000      	NOP
0x0008	0xF000EF00  	GOTO        0
0x000C	0x0000      	NOP
0x000E	0x0000      	NOP
0x0010	0x0000      	NOP
0x0012	0x0000      	NOP
0x0014	0x0000      	NOP
0x0016	0x0000      	NOP
0x0018	0xD7F3      	BRA         0
_Delay_50us:
;__Lib_Delays.c,19 :: 		void Delay_50us() {
;__Lib_Delays.c,20 :: 		Delay_us(50);
0x001C	0x0EC7      	MOVLW       199
0x001E	0x6E0D      	MOVWF       R13, 0
L_Delay_50us3:
0x0020	0x2E0D      	DECFSZ      R13, 1, 0
0x0022	0xD7FE      	BRA         L_Delay_50us3
0x0024	0x0000      	NOP
0x0026	0x0000      	NOP
;__Lib_Delays.c,21 :: 		}
L_end_Delay_50us:
0x0028	0x0012      	RETURN      0
; end of _Delay_50us
_Delay_5500us:
;__Lib_Delays.c,31 :: 		void Delay_5500us() {
;__Lib_Delays.c,32 :: 		Delay_us(5500);
0x002A	0x0E56      	MOVLW       86
0x002C	0x6E0C      	MOVWF       R12, 0
0x002E	0x0EB5      	MOVLW       181
0x0030	0x6E0D      	MOVWF       R13, 0
L_Delay_5500us6:
0x0032	0x2E0D      	DECFSZ      R13, 1, 0
0x0034	0xD7FE      	BRA         L_Delay_5500us6
0x0036	0x2E0C      	DECFSZ      R12, 1, 0
0x0038	0xD7FC      	BRA         L_Delay_5500us6
0x003A	0x0000      	NOP
0x003C	0x0000      	NOP
;__Lib_Delays.c,33 :: 		}
L_end_Delay_5500us:
0x003E	0x0012      	RETURN      0
; end of _Delay_5500us
_Delay_1us:
;__Lib_Delays.c,7 :: 		void Delay_1us() {
;__Lib_Delays.c,8 :: 		Delay_us(1);
0x0040	0x0E03      	MOVLW       3
0x0042	0x6E0D      	MOVWF       R13, 0
L_Delay_1us0:
0x0044	0x2E0D      	DECFSZ      R13, 1, 0
0x0046	0xD7FE      	BRA         L_Delay_1us0
0x0048	0x0000      	NOP
0x004A	0x0000      	NOP
;__Lib_Delays.c,9 :: 		}
L_end_Delay_1us:
0x004C	0x0012      	RETURN      0
; end of _Delay_1us
_UART1_Tx_Idle:
;__Lib_UART_c67.c,52 :: 		
;__Lib_UART_c67.c,53 :: 		
0x004E	0x0E00      	MOVLW       0
0x0050	0xB2AC      	BTFSC       TXSTA, 1 
0x0052	0x0E01      	MOVLW       1
0x0054	0x6E00      	MOVWF       R0 
;__Lib_UART_c67.c,54 :: 		
L_end_UART1_Tx_Idle:
0x0056	0x0012      	RETURN      0
; end of _UART1_Tx_Idle
_Lcd_Cmd:
;__Lib_Lcd.c,18 :: 		
;__Lib_Lcd.c,20 :: 		
0x0058	0xBE52      	BTFSC       FARG_Lcd_Cmd_out_char, 7 
0x005A	0xD002      	BRA         L__Lcd_Cmd21
0x005C	0x9E83      	BCF         LCD_D7, BitPos(LCD_D7+0) 
0x005E	0xD001      	BRA         L__Lcd_Cmd22
L__Lcd_Cmd21:
0x0060	0x8E83      	BSF         LCD_D7, BitPos(LCD_D7+0) 
L__Lcd_Cmd22:
;__Lib_Lcd.c,21 :: 		
0x0062	0xBC52      	BTFSC       FARG_Lcd_Cmd_out_char, 6 
0x0064	0xD002      	BRA         L__Lcd_Cmd23
0x0066	0x9C83      	BCF         LCD_D6, BitPos(LCD_D6+0) 
0x0068	0xD001      	BRA         L__Lcd_Cmd24
L__Lcd_Cmd23:
0x006A	0x8C83      	BSF         LCD_D6, BitPos(LCD_D6+0) 
L__Lcd_Cmd24:
;__Lib_Lcd.c,22 :: 		
0x006C	0xBA52      	BTFSC       FARG_Lcd_Cmd_out_char, 5 
0x006E	0xD002      	BRA         L__Lcd_Cmd25
0x0070	0x9A83      	BCF         LCD_D5, BitPos(LCD_D5+0) 
0x0072	0xD001      	BRA         L__Lcd_Cmd26
L__Lcd_Cmd25:
0x0074	0x8A83      	BSF         LCD_D5, BitPos(LCD_D5+0) 
L__Lcd_Cmd26:
;__Lib_Lcd.c,23 :: 		
0x0076	0xB852      	BTFSC       FARG_Lcd_Cmd_out_char, 4 
0x0078	0xD002      	BRA         L__Lcd_Cmd27
0x007A	0x9883      	BCF         LCD_D4, BitPos(LCD_D4+0) 
0x007C	0xD001      	BRA         L__Lcd_Cmd28
L__Lcd_Cmd27:
0x007E	0x8883      	BSF         LCD_D4, BitPos(LCD_D4+0) 
L__Lcd_Cmd28:
;__Lib_Lcd.c,25 :: 		
0x0080	0xB039      	BTFSC       __Lib_Lcd_cmd_status, BitPos(__Lib_Lcd_cmd_status+0) 
0x0082	0xD002      	BRA         L__Lcd_Cmd29
0x0084	0x8282      	BSF         LCD_RS, BitPos(LCD_RS+0) 
0x0086	0xD001      	BRA         L__Lcd_Cmd30
L__Lcd_Cmd29:
0x0088	0x9282      	BCF         LCD_RS, BitPos(LCD_RS+0) 
L__Lcd_Cmd30:
;__Lib_Lcd.c,28 :: 		
0x008A	0x8482      	BSF         LCD_EN, BitPos(LCD_EN+0) 
;__Lib_Lcd.c,29 :: 		
0x008C	0xDFD9      	RCALL       _Delay_1us
;__Lib_Lcd.c,30 :: 		
0x008E	0x9482      	BCF         LCD_EN, BitPos(LCD_EN+0) 
;__Lib_Lcd.c,33 :: 		
0x0090	0xB652      	BTFSC       FARG_Lcd_Cmd_out_char, 3 
0x0092	0xD002      	BRA         L__Lcd_Cmd31
0x0094	0x9E83      	BCF         LCD_D7, BitPos(LCD_D7+0) 
0x0096	0xD001      	BRA         L__Lcd_Cmd32
L__Lcd_Cmd31:
0x0098	0x8E83      	BSF         LCD_D7, BitPos(LCD_D7+0) 
L__Lcd_Cmd32:
;__Lib_Lcd.c,34 :: 		
0x009A	0xB452      	BTFSC       FARG_Lcd_Cmd_out_char, 2 
0x009C	0xD002      	BRA         L__Lcd_Cmd33
0x009E	0x9C83      	BCF         LCD_D6, BitPos(LCD_D6+0) 
0x00A0	0xD001      	BRA         L__Lcd_Cmd34
L__Lcd_Cmd33:
0x00A2	0x8C83      	BSF         LCD_D6, BitPos(LCD_D6+0) 
L__Lcd_Cmd34:
;__Lib_Lcd.c,35 :: 		
0x00A4	0xB252      	BTFSC       FARG_Lcd_Cmd_out_char, 1 
0x00A6	0xD002      	BRA         L__Lcd_Cmd35
0x00A8	0x9A83      	BCF         LCD_D5, BitPos(LCD_D5+0) 
0x00AA	0xD001      	BRA         L__Lcd_Cmd36
L__Lcd_Cmd35:
0x00AC	0x8A83      	BSF         LCD_D5, BitPos(LCD_D5+0) 
L__Lcd_Cmd36:
;__Lib_Lcd.c,36 :: 		
0x00AE	0xB052      	BTFSC       FARG_Lcd_Cmd_out_char, 0 
0x00B0	0xD002      	BRA         L__Lcd_Cmd37
0x00B2	0x9883      	BCF         LCD_D4, BitPos(LCD_D4+0) 
0x00B4	0xD001      	BRA         L__Lcd_Cmd38
L__Lcd_Cmd37:
0x00B6	0x8883      	BSF         LCD_D4, BitPos(LCD_D4+0) 
L__Lcd_Cmd38:
;__Lib_Lcd.c,38 :: 		
0x00B8	0xB039      	BTFSC       __Lib_Lcd_cmd_status, BitPos(__Lib_Lcd_cmd_status+0) 
0x00BA	0xD002      	BRA         L__Lcd_Cmd39
0x00BC	0x8282      	BSF         LCD_RS, BitPos(LCD_RS+0) 
0x00BE	0xD001      	BRA         L__Lcd_Cmd40
L__Lcd_Cmd39:
0x00C0	0x9282      	BCF         LCD_RS, BitPos(LCD_RS+0) 
L__Lcd_Cmd40:
;__Lib_Lcd.c,40 :: 		
0x00C2	0x8482      	BSF         LCD_EN, BitPos(LCD_EN+0) 
;__Lib_Lcd.c,41 :: 		
0x00C4	0xDFBD      	RCALL       _Delay_1us
;__Lib_Lcd.c,42 :: 		
0x00C6	0x9482      	BCF         LCD_EN, BitPos(LCD_EN+0) 
;__Lib_Lcd.c,44 :: 		
0x00C8	0xA039      	BTFSS       __Lib_Lcd_cmd_status, BitPos(__Lib_Lcd_cmd_status+0) 
0x00CA	0xD002      	BRA         L_Lcd_Cmd0
;__Lib_Lcd.c,45 :: 		
0x00CC	0xDFAE      	RCALL       _Delay_5500us
0x00CE	0xD001      	BRA         L_Lcd_Cmd1
L_Lcd_Cmd0:
;__Lib_Lcd.c,47 :: 		
0x00D0	0xDFA5      	RCALL       _Delay_50us
L_Lcd_Cmd1:
;__Lib_Lcd.c,48 :: 		
L_end_Lcd_Cmd:
0x00D2	0x0012      	RETURN      0
; end of _Lcd_Cmd
_UART1_Data_Ready:
;__Lib_UART_c67.c,34 :: 		
;__Lib_UART_c67.c,35 :: 		
0x00D4	0x0E00      	MOVLW       0
0x00D6	0xBA9E      	BTFSC       PIR1, 5 
0x00D8	0x0E01      	MOVLW       1
0x00DA	0x6E00      	MOVWF       R0 
;__Lib_UART_c67.c,36 :: 		
L_end_UART1_Data_Ready:
0x00DC	0x0012      	RETURN      0
; end of _UART1_Data_Ready
_UART1_Read:
;__Lib_UART_c67.c,39 :: 		
;__Lib_UART_c67.c,42 :: 		
0x00DE	0xF001CFAE  	MOVFF       RCREG, R1
;__Lib_UART_c67.c,43 :: 		
0x00E2	0xA2AB      	BTFSS       RCSTA, 1 
0x00E4	0xD002      	BRA         L_UART1_Read2
;__Lib_UART_c67.c,44 :: 		
0x00E6	0x98AB      	BCF         RCSTA, 4 
;__Lib_UART_c67.c,45 :: 		
0x00E8	0x88AB      	BSF         RCSTA, 4 
;__Lib_UART_c67.c,46 :: 		
L_UART1_Read2:
;__Lib_UART_c67.c,47 :: 		
0x00EA	0xF000C001  	MOVFF       R1, R0
;__Lib_UART_c67.c,48 :: 		
L_end_UART1_Read:
0x00EE	0x0012      	RETURN      0
; end of _UART1_Read
_____DoIFC:
;__Lib_System.c,93 :: 		
;__Lib_System.c,94 :: 		
0x00F0	0x50F2      	MOVF        INTCON, 0, 0
;__Lib_System.c,95 :: 		
0x00F2	0x6E02      	MOVWF       R2, 0
;__Lib_System.c,96 :: 		
0x00F4	0x9EF2      	BCF         INTCON, 7 
;__Lib_System.c,97 :: 		
0x00F6	0x0005      	PUSH
;__Lib_System.c,98 :: 		
0x00F8	0x6AFF      	CLRF        TOSU, 0
;__Lib_System.c,99 :: 		
0x00FA	0x5001      	MOVF        R1, 0, 0
;__Lib_System.c,100 :: 		
0x00FC	0x6EFE      	MOVWF       TOSH, 0
;__Lib_System.c,101 :: 		
0x00FE	0x5000      	MOVF        R0, 0, 0
;__Lib_System.c,102 :: 		
0x0100	0x6EFD      	MOVWF       TOSL, 0
;__Lib_System.c,103 :: 		
0x0102	0xBE02      	BTFSC       R2, 7, 0
;__Lib_System.c,104 :: 		
0x0104	0x8EF2      	BSF         INTCON, 7, 0
;__Lib_System.c,105 :: 		
;__Lib_System.c,107 :: 		
L_end_____DoIFC:
0x0106	0x0012      	RETURN      0
; end of _____DoIFC
_Lcd_Chr_CP:
;__Lib_Lcd.c,50 :: 		
;__Lib_Lcd.c,52 :: 		
0x0108	0x9039      	BCF         __Lib_Lcd_cmd_status, BitPos(__Lib_Lcd_cmd_status+0) 
;__Lib_Lcd.c,53 :: 		
0x010A	0xF052C051  	MOVFF       FARG_Lcd_Chr_CP_out_char, FARG_Lcd_Cmd_out_char
0x010E	0xDFA4      	RCALL       _Lcd_Cmd
;__Lib_Lcd.c,54 :: 		
0x0110	0x8039      	BSF         __Lib_Lcd_cmd_status, BitPos(__Lib_Lcd_cmd_status+0) 
;__Lib_Lcd.c,55 :: 		
L_end_Lcd_Chr_CP:
0x0112	0x0012      	RETURN      0
; end of _Lcd_Chr_CP
_Lcd_Init:
;__Lib_Lcd.c,84 :: 		
;__Lib_Lcd.c,86 :: 		
0x0114	0x9494      	BCF         LCD_EN_Direction, BitPos(LCD_EN_Direction+0) 
;__Lib_Lcd.c,87 :: 		
0x0116	0x9294      	BCF         LCD_RS_Direction, BitPos(LCD_RS_Direction+0) 
;__Lib_Lcd.c,88 :: 		
0x0118	0x9895      	BCF         LCD_D4_Direction, BitPos(LCD_D4_Direction+0) 
;__Lib_Lcd.c,89 :: 		
0x011A	0x9A95      	BCF         LCD_D5_Direction, BitPos(LCD_D5_Direction+0) 
;__Lib_Lcd.c,90 :: 		
0x011C	0x9C95      	BCF         LCD_D6_Direction, BitPos(LCD_D6_Direction+0) 
;__Lib_Lcd.c,91 :: 		
0x011E	0x9E95      	BCF         LCD_D7_Direction, BitPos(LCD_D7_Direction+0) 
;__Lib_Lcd.c,93 :: 		
0x0120	0x9482      	BCF         LCD_EN, BitPos(LCD_EN+0) 
;__Lib_Lcd.c,94 :: 		
0x0122	0x9282      	BCF         LCD_RS, BitPos(LCD_RS+0) 
;__Lib_Lcd.c,95 :: 		
0x0124	0x9E83      	BCF         LCD_D7, BitPos(LCD_D7+0) 
;__Lib_Lcd.c,96 :: 		
0x0126	0x9C83      	BCF         LCD_D6, BitPos(LCD_D6+0) 
;__Lib_Lcd.c,97 :: 		
0x0128	0x9A83      	BCF         LCD_D5, BitPos(LCD_D5+0) 
;__Lib_Lcd.c,98 :: 		
0x012A	0x9883      	BCF         LCD_D4, BitPos(LCD_D4+0) 
;__Lib_Lcd.c,100 :: 		
0x012C	0xDF7E      	RCALL       _Delay_5500us
;__Lib_Lcd.c,101 :: 		
0x012E	0xDF7D      	RCALL       _Delay_5500us
;__Lib_Lcd.c,102 :: 		
0x0130	0xDF7C      	RCALL       _Delay_5500us
;__Lib_Lcd.c,105 :: 		
0x0132	0x8A83      	BSF         LCD_D5, BitPos(LCD_D5+0) 
;__Lib_Lcd.c,106 :: 		
0x0134	0x8883      	BSF         LCD_D4, BitPos(LCD_D4+0) 
;__Lib_Lcd.c,107 :: 		
0x0136	0x8482      	BSF         LCD_EN, BitPos(LCD_EN+0) 
;__Lib_Lcd.c,108 :: 		
0x0138	0xDF83      	RCALL       _Delay_1us
;__Lib_Lcd.c,109 :: 		
0x013A	0x9482      	BCF         LCD_EN, BitPos(LCD_EN+0) 
;__Lib_Lcd.c,110 :: 		
0x013C	0xDF76      	RCALL       _Delay_5500us
;__Lib_Lcd.c,112 :: 		
0x013E	0x8482      	BSF         LCD_EN, BitPos(LCD_EN+0) 
;__Lib_Lcd.c,113 :: 		
0x0140	0xDF7F      	RCALL       _Delay_1us
;__Lib_Lcd.c,114 :: 		
0x0142	0x9482      	BCF         LCD_EN, BitPos(LCD_EN+0) 
;__Lib_Lcd.c,115 :: 		
0x0144	0xDF72      	RCALL       _Delay_5500us
;__Lib_Lcd.c,117 :: 		
0x0146	0x8482      	BSF         LCD_EN, BitPos(LCD_EN+0) 
;__Lib_Lcd.c,118 :: 		
0x0148	0xDF7B      	RCALL       _Delay_1us
;__Lib_Lcd.c,119 :: 		
0x014A	0x9482      	BCF         LCD_EN, BitPos(LCD_EN+0) 
;__Lib_Lcd.c,120 :: 		
0x014C	0xDF6E      	RCALL       _Delay_5500us
;__Lib_Lcd.c,123 :: 		
0x014E	0x9883      	BCF         LCD_D4, BitPos(LCD_D4+0) 
;__Lib_Lcd.c,124 :: 		
0x0150	0x8482      	BSF         LCD_EN, BitPos(LCD_EN+0) 
;__Lib_Lcd.c,125 :: 		
0x0152	0xDF76      	RCALL       _Delay_1us
;__Lib_Lcd.c,126 :: 		
0x0154	0x9482      	BCF         LCD_EN, BitPos(LCD_EN+0) 
;__Lib_Lcd.c,127 :: 		
0x0156	0xDF69      	RCALL       _Delay_5500us
;__Lib_Lcd.c,130 :: 		
0x0158	0x8482      	BSF         LCD_EN, BitPos(LCD_EN+0) 
;__Lib_Lcd.c,131 :: 		
0x015A	0xDF72      	RCALL       _Delay_1us
;__Lib_Lcd.c,132 :: 		
0x015C	0x9482      	BCF         LCD_EN, BitPos(LCD_EN+0) 
;__Lib_Lcd.c,134 :: 		
0x015E	0x9A83      	BCF         LCD_D5, BitPos(LCD_D5+0) 
;__Lib_Lcd.c,135 :: 		
0x0160	0x8E83      	BSF         LCD_D7, BitPos(LCD_D7+0) 
;__Lib_Lcd.c,136 :: 		
0x0162	0x8482      	BSF         LCD_EN, BitPos(LCD_EN+0) 
;__Lib_Lcd.c,137 :: 		
0x0164	0xDF6D      	RCALL       _Delay_1us
;__Lib_Lcd.c,138 :: 		
0x0166	0x9482      	BCF         LCD_EN, BitPos(LCD_EN+0) 
;__Lib_Lcd.c,139 :: 		
0x0168	0xDF60      	RCALL       _Delay_5500us
;__Lib_Lcd.c,142 :: 		
0x016A	0x9E83      	BCF         LCD_D7, BitPos(LCD_D7+0) 
;__Lib_Lcd.c,143 :: 		
0x016C	0x8883      	BSF         LCD_D4, BitPos(LCD_D4+0) 
;__Lib_Lcd.c,144 :: 		
0x016E	0x8482      	BSF         LCD_EN, BitPos(LCD_EN+0) 
;__Lib_Lcd.c,145 :: 		
0x0170	0xDF67      	RCALL       _Delay_1us
;__Lib_Lcd.c,146 :: 		
0x0172	0x9482      	BCF         LCD_EN, BitPos(LCD_EN+0) 
;__Lib_Lcd.c,148 :: 		
0x0174	0x9883      	BCF         LCD_D4, BitPos(LCD_D4+0) 
;__Lib_Lcd.c,149 :: 		
0x0176	0x8482      	BSF         LCD_EN, BitPos(LCD_EN+0) 
;__Lib_Lcd.c,150 :: 		
0x0178	0xDF63      	RCALL       _Delay_1us
;__Lib_Lcd.c,151 :: 		
0x017A	0x9482      	BCF         LCD_EN, BitPos(LCD_EN+0) 
;__Lib_Lcd.c,152 :: 		
0x017C	0xDF56      	RCALL       _Delay_5500us
;__Lib_Lcd.c,155 :: 		
0x017E	0x8482      	BSF         LCD_EN, BitPos(LCD_EN+0) 
;__Lib_Lcd.c,156 :: 		
0x0180	0xDF5F      	RCALL       _Delay_1us
;__Lib_Lcd.c,157 :: 		
0x0182	0x9482      	BCF         LCD_EN, BitPos(LCD_EN+0) 
;__Lib_Lcd.c,159 :: 		
0x0184	0x8883      	BSF         LCD_D4, BitPos(LCD_D4+0) 
;__Lib_Lcd.c,160 :: 		
0x0186	0x8482      	BSF         LCD_EN, BitPos(LCD_EN+0) 
;__Lib_Lcd.c,161 :: 		
0x0188	0xDF5B      	RCALL       _Delay_1us
;__Lib_Lcd.c,162 :: 		
0x018A	0x9482      	BCF         LCD_EN, BitPos(LCD_EN+0) 
;__Lib_Lcd.c,163 :: 		
0x018C	0xDF4E      	RCALL       _Delay_5500us
;__Lib_Lcd.c,166 :: 		
0x018E	0x9883      	BCF         LCD_D4, BitPos(LCD_D4+0) 
;__Lib_Lcd.c,167 :: 		
0x0190	0x8482      	BSF         LCD_EN, BitPos(LCD_EN+0) 
;__Lib_Lcd.c,168 :: 		
0x0192	0xDF56      	RCALL       _Delay_1us
;__Lib_Lcd.c,169 :: 		
0x0194	0x9482      	BCF         LCD_EN, BitPos(LCD_EN+0) 
;__Lib_Lcd.c,171 :: 		
0x0196	0x8E83      	BSF         LCD_D7, BitPos(LCD_D7+0) 
;__Lib_Lcd.c,172 :: 		
0x0198	0x8C83      	BSF         LCD_D6, BitPos(LCD_D6+0) 
;__Lib_Lcd.c,173 :: 		
0x019A	0x8A83      	BSF         LCD_D5, BitPos(LCD_D5+0) 
;__Lib_Lcd.c,174 :: 		
0x019C	0x8883      	BSF         LCD_D4, BitPos(LCD_D4+0) 
;__Lib_Lcd.c,175 :: 		
0x019E	0x8482      	BSF         LCD_EN, BitPos(LCD_EN+0) 
;__Lib_Lcd.c,176 :: 		
0x01A0	0xDF4F      	RCALL       _Delay_1us
;__Lib_Lcd.c,177 :: 		
0x01A2	0x9482      	BCF         LCD_EN, BitPos(LCD_EN+0) 
;__Lib_Lcd.c,179 :: 		
0x01A4	0xDF42      	RCALL       _Delay_5500us
;__Lib_Lcd.c,181 :: 		
0x01A6	0x8039      	BSF         __Lib_Lcd_cmd_status, BitPos(__Lib_Lcd_cmd_status+0) 
;__Lib_Lcd.c,182 :: 		
L_end_Lcd_Init:
0x01A8	0x0012      	RETURN      0
; end of _Lcd_Init
_UART1_Init:
;__Lib_UART_c67.c,15 :: 		
;__Lib_UART_c67.c,18 :: 		
0x01AA	0x0EFF      	MOVLW       _UART1_Write
0x01AC	0x6E29      	MOVWF       _UART_Wr_Ptr 
0x01AE	0x0EFF      	MOVLW       hi_addr(_UART1_Write)
0x01B0	0x6E2A      	MOVWF       _UART_Wr_Ptr+1 
0x01B2	0x0EFF      	MOVLW       FARG_UART1_Write_data_
0x01B4	0x6E2B      	MOVWF       _UART_Wr_Ptr+2 
0x01B6	0x0EFF      	MOVLW       hi_addr(FARG_UART1_Write_data_)
0x01B8	0x6E2C      	MOVWF       _UART_Wr_Ptr+3 
;__Lib_UART_c67.c,19 :: 		
0x01BA	0x0EDE      	MOVLW       _UART1_Read
0x01BC	0x6E35      	MOVWF       _UART_Rd_Ptr 
0x01BE	0x0E00      	MOVLW       hi_addr(_UART1_Read)
0x01C0	0x6E36      	MOVWF       _UART_Rd_Ptr+1 
0x01C2	0x0E00      	MOVLW       0
0x01C4	0x6E37      	MOVWF       _UART_Rd_Ptr+2 
0x01C6	0x0E00      	MOVLW       0
0x01C8	0x6E38      	MOVWF       _UART_Rd_Ptr+3 
;__Lib_UART_c67.c,20 :: 		
0x01CA	0x0ED4      	MOVLW       _UART1_Data_Ready
0x01CC	0x6E31      	MOVWF       _UART_Rdy_Ptr 
0x01CE	0x0E00      	MOVLW       hi_addr(_UART1_Data_Ready)
0x01D0	0x6E32      	MOVWF       _UART_Rdy_Ptr+1 
0x01D2	0x0E00      	MOVLW       0
0x01D4	0x6E33      	MOVWF       _UART_Rdy_Ptr+2 
0x01D6	0x0E00      	MOVLW       0
0x01D8	0x6E34      	MOVWF       _UART_Rdy_Ptr+3 
;__Lib_UART_c67.c,21 :: 		
0x01DA	0x0E4E      	MOVLW       _UART1_Tx_Idle
0x01DC	0x6E2D      	MOVWF       _UART_Tx_Idle_Ptr 
0x01DE	0x0E00      	MOVLW       hi_addr(_UART1_Tx_Idle)
0x01E0	0x6E2E      	MOVWF       _UART_Tx_Idle_Ptr+1 
0x01E2	0x0E00      	MOVLW       0
0x01E4	0x6E2F      	MOVWF       _UART_Tx_Idle_Ptr+2 
0x01E6	0x0E00      	MOVLW       0
0x01E8	0x6E30      	MOVWF       _UART_Tx_Idle_Ptr+3 
;__Lib_UART_c67.c,23 :: 		
0x01EA	0x8AAC      	BSF         TXSTA, 5 
;__Lib_UART_c67.c,24 :: 		
0x01EC	0x0E90      	MOVLW       144
0x01EE	0x6EAB      	MOVWF       RCSTA 
;__Lib_UART_c67.c,25 :: 		
0x01F0	0x8E94      	BSF         TRISC7_bit, BitPos(TRISC7_bit+0) 
;__Lib_UART_c67.c,26 :: 		
0x01F2	0x9C94      	BCF         TRISC6_bit, BitPos(TRISC6_bit+0) 
;__Lib_UART_c67.c,28 :: 		
L_UART1_Init0:
0x01F4	0xAA9E      	BTFSS       PIR1, 5 
0x01F6	0xD003      	BRA         L_UART1_Init1
;__Lib_UART_c67.c,29 :: 		
0x01F8	0xF000CFAE  	MOVFF       RCREG, R0
0x01FC	0xD7FB      	BRA         L_UART1_Init0
L_UART1_Init1:
;__Lib_UART_c67.c,30 :: 		
L_end_UART1_Init:
0x01FE	0x0012      	RETURN      0
; end of _UART1_Init
___CC2DW:
;__Lib_System.c,21 :: 		
;__Lib_System.c,23 :: 		
_CC2DL_Loop1:
;__Lib_System.c,24 :: 		
0x0200	0x0009      	TBLRD*+
;__Lib_System.c,25 :: 		
0x0202	0xFFE6CFF5  	MOVFF       TABLAT, POSTINC1
;__Lib_System.c,26 :: 		
0x0206	0x0600      	DECF        R0, 1, 0
;__Lib_System.c,27 :: 		
0x0208	0xE1FB      	BNZ         _CC2DL_Loop1
;__Lib_System.c,28 :: 		
0x020A	0x0601      	DECF        R1, 1, 0
;__Lib_System.c,29 :: 		
0x020C	0xE1F9      	BNZ         _CC2DL_Loop1
;__Lib_System.c,31 :: 		
L_end___CC2DW:
0x020E	0x0012      	RETURN      0
; end of ___CC2DW
_USART_ReceiveChar:
;MyProject.c,5 :: 		char USART_ReceiveChar()
;MyProject.c,8 :: 		while(RCIF==0);                 /*wait for receive interrupt flag*/
L_USART_ReceiveChar1:
;MyProject.c,15 :: 		return(RCREG);                  /*received in RCREG register and return to main program */
0x0210	0xF000CFAE  	MOVFF       RCREG, R0
;MyProject.c,16 :: 		}
L_end_USART_ReceiveChar:
0x0214	0x0012      	RETURN      0
; end of _USART_ReceiveChar
_UART_Data_Ready:
;__Lib_UART_c67.c,138 :: 		
;__Lib_UART_c67.c,139 :: 		
0x0216	0xF000C031  	MOVFF       _UART_Rdy_Ptr, R0
0x021A	0xF001C032  	MOVFF       _UART_Rdy_Ptr+1, R1
0x021E	0xDF68      	RCALL       _____DoIFC
;__Lib_UART_c67.c,140 :: 		
L_end_UART_Data_Ready:
0x0220	0x0012      	RETURN      0
; end of _UART_Data_Ready
_Lcd_Out:
;__Lib_Lcd.c,184 :: 		
;__Lib_Lcd.c,187 :: 		
0x0222	0xD00F      	BRA         L_Lcd_Out11
;__Lib_Lcd.c,188 :: 		
L_Lcd_Out13:
0x0224	0x0E80      	MOVLW       128
0x0226	0x6E4C      	MOVWF       FARG_Lcd_Out_row 
0x0228	0xD019      	BRA         L_Lcd_Out12
;__Lib_Lcd.c,189 :: 		
L_Lcd_Out14:
0x022A	0x0EC0      	MOVLW       192
0x022C	0x6E4C      	MOVWF       FARG_Lcd_Out_row 
0x022E	0xD016      	BRA         L_Lcd_Out12
;__Lib_Lcd.c,190 :: 		
L_Lcd_Out15:
0x0230	0x0E94      	MOVLW       148
0x0232	0x6E4C      	MOVWF       FARG_Lcd_Out_row 
0x0234	0xD013      	BRA         L_Lcd_Out12
;__Lib_Lcd.c,191 :: 		
L_Lcd_Out16:
0x0236	0x0ED4      	MOVLW       212
0x0238	0x6E4C      	MOVWF       FARG_Lcd_Out_row 
0x023A	0xD010      	BRA         L_Lcd_Out12
;__Lib_Lcd.c,192 :: 		
L_Lcd_Out17:
0x023C	0x0E80      	MOVLW       128
0x023E	0x6E4C      	MOVWF       FARG_Lcd_Out_row 
;__Lib_Lcd.c,193 :: 		
0x0240	0xD00D      	BRA         L_Lcd_Out12
L_Lcd_Out11:
0x0242	0x504C      	MOVF        FARG_Lcd_Out_row, 0 
0x0244	0x0A01      	XORLW       1
0x0246	0xE0EE      	BZ          L_Lcd_Out13
0x0248	0x504C      	MOVF        FARG_Lcd_Out_row, 0 
0x024A	0x0A02      	XORLW       2
0x024C	0xE0EE      	BZ          L_Lcd_Out14
0x024E	0x504C      	MOVF        FARG_Lcd_Out_row, 0 
0x0250	0x0A03      	XORLW       3
0x0252	0xE0EE      	BZ          L_Lcd_Out15
0x0254	0x504C      	MOVF        FARG_Lcd_Out_row, 0 
0x0256	0x0A04      	XORLW       4
0x0258	0xE0EE      	BZ          L_Lcd_Out16
0x025A	0xD7F0      	BRA         L_Lcd_Out17
L_Lcd_Out12:
;__Lib_Lcd.c,194 :: 		
0x025C	0x044D      	DECF        FARG_Lcd_Out_column, 0 
0x025E	0x6E00      	MOVWF       R0 
0x0260	0x504C      	MOVF        FARG_Lcd_Out_row, 0 
0x0262	0x2600      	ADDWF       R0, 1 
0x0264	0xF04CC000  	MOVFF       R0, FARG_Lcd_Out_row
;__Lib_Lcd.c,196 :: 		
0x0268	0xF052C000  	MOVFF       R0, FARG_Lcd_Cmd_out_char
0x026C	0xDEF5      	RCALL       _Lcd_Cmd
;__Lib_Lcd.c,197 :: 		
0x026E	0x9039      	BCF         __Lib_Lcd_cmd_status, BitPos(__Lib_Lcd_cmd_status+0) 
;__Lib_Lcd.c,198 :: 		
0x0270	0x6A50      	CLRF        Lcd_Out_i_L0 
;__Lib_Lcd.c,199 :: 		
L_Lcd_Out18:
0x0272	0x5050      	MOVF        Lcd_Out_i_L0, 0 
0x0274	0x244E      	ADDWF       FARG_Lcd_Out_text, 0 
0x0276	0x6EE9      	MOVWF       FSR0L 
0x0278	0x0E00      	MOVLW       0
0x027A	0x204F      	ADDWFC      FARG_Lcd_Out_text+1, 0 
0x027C	0x6EEA      	MOVWF       FSR0H 
0x027E	0x52EE      	MOVF        POSTINC0, 1 
0x0280	0xE00B      	BZ          L_Lcd_Out19
;__Lib_Lcd.c,200 :: 		
0x0282	0x5050      	MOVF        Lcd_Out_i_L0, 0 
0x0284	0x244E      	ADDWF       FARG_Lcd_Out_text, 0 
0x0286	0x6EE9      	MOVWF       FSR0L 
0x0288	0x0E00      	MOVLW       0
0x028A	0x204F      	ADDWFC      FARG_Lcd_Out_text+1, 0 
0x028C	0x6EEA      	MOVWF       FSR0H 
0x028E	0xF051CFEE  	MOVFF       POSTINC0, FARG_Lcd_Chr_CP_out_char
0x0292	0xDF3A      	RCALL       _Lcd_Chr_CP
0x0294	0x2A50      	INCF        Lcd_Out_i_L0, 1 
0x0296	0xD7ED      	BRA         L_Lcd_Out18
L_Lcd_Out19:
;__Lib_Lcd.c,201 :: 		
0x0298	0x8039      	BSF         __Lib_Lcd_cmd_status, BitPos(__Lib_Lcd_cmd_status+0) 
;__Lib_Lcd.c,202 :: 		
L_end_Lcd_Out:
0x029A	0x0012      	RETURN      0
; end of _Lcd_Out
_main:
0x029C	0xF001ECCF  	CALL        926, 0
;MyProject.c,43 :: 		void main() {
;MyProject.c,44 :: 		UART1_Init(9600);
0x02A0	0x86B8      	BSF         BAUDCON, 3, 0
0x02A2	0x0E04      	MOVLW       4
0x02A4	0x6EB0      	MOVWF       SPBRGH 
0x02A6	0x0EE1      	MOVLW       225
0x02A8	0x6EAF      	MOVWF       SPBRG 
0x02AA	0x84AC      	BSF         TXSTA, 2, 0
0x02AC	0xDF7E      	RCALL       _UART1_Init
;MyProject.c,45 :: 		Delay_ms(100);
0x02AE	0x0E07      	MOVLW       7
0x02B0	0x6E0B      	MOVWF       R11, 0
0x02B2	0x0E17      	MOVLW       23
0x02B4	0x6E0C      	MOVWF       R12, 0
0x02B6	0x0E6A      	MOVLW       106
0x02B8	0x6E0D      	MOVWF       R13, 0
L_main2:
0x02BA	0x2E0D      	DECFSZ      R13, 1, 0
0x02BC	0xD7FE      	BRA         L_main2
0x02BE	0x2E0C      	DECFSZ      R12, 1, 0
0x02C0	0xD7FC      	BRA         L_main2
0x02C2	0x2E0B      	DECFSZ      R11, 1, 0
0x02C4	0xD7FA      	BRA         L_main2
0x02C6	0x0000      	NOP
;MyProject.c,46 :: 		ADCON1 |= 0x0F;          // Configure AN pins as digital
0x02C8	0x0E0F      	MOVLW       15
0x02CA	0x12C1      	IORWF       ADCON1, 1 
;MyProject.c,47 :: 		CMCON |= 7;            // Disable comparators
0x02CC	0x0E07      	MOVLW       7
0x02CE	0x12B4      	IORWF       CMCON, 1 
;MyProject.c,48 :: 		TRISB = 0x00;
0x02D0	0x6A93      	CLRF        TRISB 
;MyProject.c,49 :: 		TRISC = 0x80;
0x02D2	0x0E80      	MOVLW       128
0x02D4	0x6E94      	MOVWF       TRISC 
;MyProject.c,50 :: 		Lcd_Init();            // Initialize LCD
0x02D6	0xDF1E      	RCALL       _Lcd_Init
;MyProject.c,51 :: 		Delay_ms(100);
0x02D8	0x0E07      	MOVLW       7
0x02DA	0x6E0B      	MOVWF       R11, 0
0x02DC	0x0E17      	MOVLW       23
0x02DE	0x6E0C      	MOVWF       R12, 0
0x02E0	0x0E6A      	MOVLW       106
0x02E2	0x6E0D      	MOVWF       R13, 0
L_main3:
0x02E4	0x2E0D      	DECFSZ      R13, 1, 0
0x02E6	0xD7FE      	BRA         L_main3
0x02E8	0x2E0C      	DECFSZ      R12, 1, 0
0x02EA	0xD7FC      	BRA         L_main3
0x02EC	0x2E0B      	DECFSZ      R11, 1, 0
0x02EE	0xD7FA      	BRA         L_main3
0x02F0	0x0000      	NOP
;MyProject.c,52 :: 		Lcd_Cmd(_LCD_CLEAR);       // Clear display
0x02F2	0x0E01      	MOVLW       1
0x02F4	0x6E52      	MOVWF       FARG_Lcd_Cmd_out_char 
0x02F6	0xDEB0      	RCALL       _Lcd_Cmd
;MyProject.c,53 :: 		Delay_ms(100);
0x02F8	0x0E07      	MOVLW       7
0x02FA	0x6E0B      	MOVWF       R11, 0
0x02FC	0x0E17      	MOVLW       23
0x02FE	0x6E0C      	MOVWF       R12, 0
0x0300	0x0E6A      	MOVLW       106
0x0302	0x6E0D      	MOVWF       R13, 0
L_main4:
0x0304	0x2E0D      	DECFSZ      R13, 1, 0
0x0306	0xD7FE      	BRA         L_main4
0x0308	0x2E0C      	DECFSZ      R12, 1, 0
0x030A	0xD7FC      	BRA         L_main4
0x030C	0x2E0B      	DECFSZ      R11, 1, 0
0x030E	0xD7FA      	BRA         L_main4
0x0310	0x0000      	NOP
;MyProject.c,54 :: 		Lcd_Cmd(_LCD_CURSOR_OFF);     // Cursor off
0x0312	0x0E0C      	MOVLW       12
0x0314	0x6E52      	MOVWF       FARG_Lcd_Cmd_out_char 
0x0316	0xDEA0      	RCALL       _Lcd_Cmd
;MyProject.c,55 :: 		Delay_ms(100);
0x0318	0x0E07      	MOVLW       7
0x031A	0x6E0B      	MOVWF       R11, 0
0x031C	0x0E17      	MOVLW       23
0x031E	0x6E0C      	MOVWF       R12, 0
0x0320	0x0E6A      	MOVLW       106
0x0322	0x6E0D      	MOVWF       R13, 0
L_main5:
0x0324	0x2E0D      	DECFSZ      R13, 1, 0
0x0326	0xD7FE      	BRA         L_main5
0x0328	0x2E0C      	DECFSZ      R12, 1, 0
0x032A	0xD7FC      	BRA         L_main5
0x032C	0x2E0B      	DECFSZ      R11, 1, 0
0x032E	0xD7FA      	BRA         L_main5
0x0330	0x0000      	NOP
;MyProject.c,56 :: 		Lcd_Out(1,1,"TUGAS");        // Write text in first row
0x0332	0x0E01      	MOVLW       1
0x0334	0x6E4C      	MOVWF       FARG_Lcd_Out_row 
0x0336	0x0E01      	MOVLW       1
0x0338	0x6E4D      	MOVWF       FARG_Lcd_Out_column 
0x033A	0x0E15      	MOVLW       ?lstr1_MyProject
0x033C	0x6E4E      	MOVWF       FARG_Lcd_Out_text 
0x033E	0x0E00      	MOVLW       hi_addr(?lstr1_MyProject)
0x0340	0x6E4F      	MOVWF       FARG_Lcd_Out_text+1 
0x0342	0xDF6F      	RCALL       _Lcd_Out
;MyProject.c,57 :: 		Delay_ms(100);
0x0344	0x0E07      	MOVLW       7
0x0346	0x6E0B      	MOVWF       R11, 0
0x0348	0x0E17      	MOVLW       23
0x034A	0x6E0C      	MOVWF       R12, 0
0x034C	0x0E6A      	MOVLW       106
0x034E	0x6E0D      	MOVWF       R13, 0
L_main6:
0x0350	0x2E0D      	DECFSZ      R13, 1, 0
0x0352	0xD7FE      	BRA         L_main6
0x0354	0x2E0C      	DECFSZ      R12, 1, 0
0x0356	0xD7FC      	BRA         L_main6
0x0358	0x2E0B      	DECFSZ      R11, 1, 0
0x035A	0xD7FA      	BRA         L_main6
0x035C	0x0000      	NOP
;MyProject.c,58 :: 		Lcd_Out(2,1,"Kerja Praktek");        // Write text in second row
0x035E	0x0E02      	MOVLW       2
0x0360	0x6E4C      	MOVWF       FARG_Lcd_Out_row 
0x0362	0x0E01      	MOVLW       1
0x0364	0x6E4D      	MOVWF       FARG_Lcd_Out_column 
0x0366	0x0E1B      	MOVLW       ?lstr2_MyProject
0x0368	0x6E4E      	MOVWF       FARG_Lcd_Out_text 
0x036A	0x0E00      	MOVLW       hi_addr(?lstr2_MyProject)
0x036C	0x6E4F      	MOVWF       FARG_Lcd_Out_text+1 
0x036E	0xDF59      	RCALL       _Lcd_Out
;MyProject.c,63 :: 		while(1){
L_main7:
;MyProject.c,65 :: 		data_counter = 0;
0x0370	0x6A3A      	CLRF        _data_counter 
0x0372	0x6A3B      	CLRF        _data_counter+1 
;MyProject.c,67 :: 		while(UART_Data_Ready()){
L_main9:
0x0374	0xDF50      	RCALL       _UART_Data_Ready
0x0376	0x5200      	MOVF        R0, 1 
0x0378	0xE004      	BZ          L_main10
;MyProject.c,68 :: 		buffer[0] = USART_ReceiveChar();
0x037A	0xDF4A      	RCALL       _USART_ReceiveChar
0x037C	0xF03CC000  	MOVFF       R0, _buffer
;MyProject.c,69 :: 		}
0x0380	0xD7F9      	BRA         L_main9
L_main10:
;MyProject.c,70 :: 		LATB = buffer[0];
0x0382	0xFF8AC03C  	MOVFF       _buffer, LATB
;MyProject.c,72 :: 		}
0x0386	0xD7F4      	BRA         L_main7
;MyProject.c,75 :: 		}
L_end_main:
0x0388	0xD7FF      	BRA         $+0
; end of _main
0x039E	0xF015EE10  	LFSR        1, 21
0x03A2	0x0E14      	MOVLW       20
0x03A4	0x6E00      	MOVWF       R0 
0x03A6	0x0E01      	MOVLW       1
0x03A8	0x6E01      	MOVWF       R1 
0x03AA	0x0E8A      	MOVLW       138
0x03AC	0x6EF6      	MOVWF       4086 
0x03AE	0x0E03      	MOVLW       3
0x03B0	0x6EF7      	MOVWF       TBLPTRH 
0x03B2	0x0E00      	MOVLW       0
0x03B4	0x6EF8      	MOVWF       TBLPTRU 
0x03B6	0xF001EC00  	CALL        512, 0
0x03BA	0x0012      	RETURN      0
;MyProject.c,0 :: ?ICS?lstr1_MyProject
0x038A	0x5554 ;?ICS?lstr1_MyProject+0
0x038C	0x4147 ;?ICS?lstr1_MyProject+2
0x038E	0x0053 ;?ICS?lstr1_MyProject+4
; end of ?ICS?lstr1_MyProject
;MyProject.c,0 :: ?ICS?lstr2_MyProject
0x0390	0x654B ;?ICS?lstr2_MyProject+0
0x0392	0x6A72 ;?ICS?lstr2_MyProject+2
0x0394	0x2061 ;?ICS?lstr2_MyProject+4
0x0396	0x7250 ;?ICS?lstr2_MyProject+6
0x0398	0x6B61 ;?ICS?lstr2_MyProject+8
0x039A	0x6574 ;?ICS?lstr2_MyProject+10
0x039C	0x006B ;?ICS?lstr2_MyProject+12
; end of ?ICS?lstr2_MyProject
Symbol List:
//** Routines locations **
//ADDRESS    SIZE    PROCEDURE
//----------------------------------------------
0x001C      [14]    _Delay_50us
0x002A      [22]    _Delay_5500us
0x0040      [14]    _Delay_1us
0x004E      [10]    _UART1_Tx_Idle
0x0058     [124]    _Lcd_Cmd
0x00D4      [10]    _UART1_Data_Ready
0x00DE      [18]    _UART1_Read
0x00F0      [24]    _____DoIFC
0x0108      [12]    _Lcd_Chr_CP
0x0114     [150]    _Lcd_Init
0x01AA      [86]    _UART1_Init
0x0200      [16]    ___CC2DW
0x0210       [6]    _USART_ReceiveChar
0x0216      [12]    _UART_Data_Ready
0x0222     [122]    _Lcd_Out
0x029C     [238]    _main
//** Variables locations ** 
//ADDRESS    SIZE    VARIABLE
//----------------------------------------------
0x0000       [1]    __Lib_SoftI2C_PutZerosToLATScl_temp_scl_L0
0x0000       [1]    __Lib_SoftI2C_PutZerosToLATSda_temp_sda_L0
0x0000       [1]    EEPROM_Write_SaveINTCON_L0
0x0000       [1]    FLASH_Erase_64_SaveINTCON_L0
0x0000       [1]    R0
0x0000       [1]    UART1_Init_tmp_L0
0x0000       [1]    SPI1_Write_tmp_L0
0x0001       [1]    __Lib_TFT_JPEG_FileReadBytes_Result_L0
0x0001       [1]    UART1_Read___tmp_UART1_Read_L0
0x0001       [1]    FLASH_Write_32_i_L0
0x0001       [2]    FLASH_Read_N_Bytes_i_L0
0x0001       [1]    __Lib_PS2_Wait_Falling_nsample_L0
0x0001       [1]    __Lib_TFT_16bit_JPEG_FileReadBytes_Result_L0
0x0001       [1]    __Lib_TFT_JPEG_FileRead_i_L0
0x0001       [1]    R1
0x0001       [1]    I2C1_Rd_tmp_L0
0x0001       [1]    __Lib_TFT_16bit_JPEG_FileRead_i_L0
0x0001       [1]    __Lib_USB_genHID_?FLOC____Lib_USB_genHID_USB_Handle_BusyT1
0x0001       [1]    ispunct_rslt_L0
0x0001       [1]    FLASH_Erase_Write_64_i_L0
0x0002       [2]    memset_pp_L0
0x0002       [1]    FLASH_Write_32_SaveINTCON_L0
0x0002       [1]    R2
0x0002       [2]    memchr_s_L0
0x0002       [1]    __Lib_USB_genHID_USB_CtrlTrf_Rx_Service_byteToRead_L0
0x0002       [2]    strlen_cp_L0
0x0002       [1]    FLASH_Erase_Write_64_j_L0
0x0002       [2]    memcpy_dd_L0
0x0003       [1]    __Lib_USB_genHID_USB_CtrlTrf_Rx_Service_i_L0
0x0003       [1]    MM_Init_i_L0
0x0003       [1]    FLASH_Erase_Write_64_SaveINTCON_L0
0x0003       [2]    Ltrim_original_L0
0x0003       [2]    __Lib_USB_genHID_USB_CtrlTrf_Tx_Service_byteToSend_L0
0x0003       [2]    memmove_tt_L0
0x0003       [2]    MM_TotalFreeMemSize_Tot_L0
0x0003       [1]    R3
0x0003       [2]    __Lib_MmcFat16_f16_toInt_l_L0
0x0003       [1]    __Lib_Sprinti_?FLOC____Lib_Sprinti_Do_FillT29
0x0004       [2]    strcpy_cp_L0
0x0004       [2]    strcat_cp_L0
0x0004       [2]    strncat_cp_L0
0x0004       [2]    strncpy_cp_L0
0x0004       [2]    frexp_pom_L0
0x0004       [2]    memcpy_ss_L0
0x0004       [1]    __Lib_USB_genHID_GetMaxIndexInDevDsc_index_L0
0x0004       [2]    __Lib_MemManager_MM_GetMemAlign_P_L0
0x0004       [2]    __Lib_USB_genHID_USB_Transfer_Packet_handle_L0
0x0004       [2]    __Lib_USB_genHID_USB_Std_Feature_Req_Handler_p_L0
0x0004       [2]    __Lib_USB_genHID_USB_Get_Status_Handler_p_L2
0x0004       [1]    __Lib_Sprinti_?FLOC____Lib_Sprinti_Do_FillT40
0x0004       [1]    R4
0x0005       [2]    Ltrim_p_L0
0x0005       [2]    LongWordToHex_input_half_L0
0x0005       [1]    R5
0x0005       [2]    __Lib_USB_genHID_USB_Configure_Endpoint_handle_L0
0x0005       [2]    LongIntToHex_input_half_L0
0x0005       [1]    __Lib_Sprinti_?FLOC____Lib_Sprinti_Do_FillT54
0x0005       [1]    MM_TotalFreeMemSize_i_L0
0x0005       [2]    memmove_ff_L0
0x0006       [1]    R6
0x0006       [1]    __Lib_Sprinti_?FLOC____Lib_Sprinti_Do_FillT69
0x0006       [1]    __Lib_MemManager_MM_GetMemAlign_i_L0
0x0006       [2]    __Lib_USB_genHID_GetMaxIndexInConfigDsc_totalLen_L0
0x0007       [1]    R7
0x0007       [1]    __Lib_TFT_JPEG_GenerateHuffmanTables_bLength_L0
0x0007       [1]    __Lib_TFT_16bit_JPEG_GenerateHuffmanTables_bLength_L0
0x0008       [1]    R8
0x0008       [1]    __Lib_TFT_JPEG_GenerateHuffmanTables_bTable_L0
0x0008       [1]    __Lib_TFT_16bit_JPEG_GenerateHuffmanTables_bTable_L0
0x0008       [3]    __Lib_USB_genHID_GetMaxIndexInConfigDsc_ptr_L0
0x0009       [1]    R9
0x0009       [4]    __Lib_MmcFat16_f16_toLong_l_L0
0x000A       [1]    R10
0x000B       [1]    R11
0x000C       [1]    R12
0x000D       [1]    R13
0x000E       [1]    R14
0x000F       [1]    R15
0x0010       [1]    R16
0x0011       [1]    R17
0x0012       [1]    R18
0x0013       [1]    R19
0x0014       [1]    R20
0x0015       [6]    ?lstr1_MyProject
0x001B      [14]    ?lstr2_MyProject
0x0029       [4]    _UART_Wr_Ptr
0x002D       [4]    _UART_Tx_Idle_Ptr
0x0031       [4]    _UART_Rdy_Ptr
0x0035       [4]    _UART_Rd_Ptr
0x0039       [0]    __Lib_Lcd_cmd_status
0x003A       [2]    _data_counter
0x003C      [16]    _buffer
0x004C       [1]    FARG_Lcd_Out_row
0x004D       [1]    FARG_Lcd_Out_column
0x004E       [2]    FARG_Lcd_Out_text
0x0050       [1]    Lcd_Out_i_L0
0x0051       [1]    FARG_Lcd_Chr_CP_out_char
0x0052       [1]    FARG_Lcd_Cmd_out_char
0x0F82       [0]    LCD_RS
0x0F82       [0]    LCD_EN
0x0F82       [0]    RC1_bit
0x0F82       [0]    RC2_bit
0x0F83       [0]    LCD_D7
0x0F83       [0]    LCD_D6
0x0F83       [0]    LCD_D5
0x0F83       [0]    LCD_D4
0x0F83       [0]    RD4_bit
0x0F83       [0]    RD5_bit
0x0F83       [0]    RD7_bit
0x0F83       [0]    RD6_bit
0x0F8A       [1]    LATB
0x0F93       [1]    TRISB
0x0F94       [0]    TRISC6_bit
0x0F94       [0]    LCD_RS_Direction
0x0F94       [0]    TRISC2_bit
0x0F94       [0]    TRISC1_bit
0x0F94       [1]    TRISC
0x0F94       [0]    LCD_EN_Direction
0x0F94       [0]    TRISC7_bit
0x0F95       [0]    TRISD6_bit
0x0F95       [0]    TRISD5_bit
0x0F95       [0]    LCD_D6_Direction
0x0F95       [0]    LCD_D7_Direction
0x0F95       [0]    LCD_D4_Direction
0x0F95       [0]    LCD_D5_Direction
0x0F95       [0]    TRISD7_bit
0x0F95       [0]    TRISD4_bit
0x0F9E       [1]    PIR1
0x0FAB       [1]    RCSTA
0x0FAC       [1]    TXSTA
0x0FAE       [1]    RCREG
0x0FAF       [1]    SPBRG
0x0FB0       [1]    SPBRGH
0x0FB4       [1]    CMCON
0x0FB8       [1]    BAUDCON
0x0FC1       [1]    ADCON1
0x0FD8       [1]    STATUS
0x0FD9       [1]    FSR2L
0x0FDA       [1]    FSR2H
0x0FDE       [1]    POSTINC2
0x0FE0       [1]    BSR
0x0FE1       [1]    FSR1L
0x0FE2       [1]    FSR1H
0x0FE4       [1]    PREINC1
0x0FE6       [1]    POSTINC1
0x0FE7       [1]    INDF1
0x0FE8       [1]    WREG
0x0FE9       [1]    FSR0L
0x0FEA       [1]    FSR0H
0x0FEE       [1]    POSTINC0
0x0FF2       [1]    INTCON
0x0FF3       [1]    PRODL
0x0FF4       [1]    PRODH
0x0FF5       [1]    TABLAT
0x0FF6       [1]    TBLPTRL
0x0FF7       [1]    TBLPTRH
0x0FF8       [1]    TBLPTRU
0x0FFD       [1]    TOSL
0x0FFE       [1]    TOSH
0x0FFF       [1]    TOSU
//** Constants locations ** 
//ADDRESS    SIZE    CONSTANT
//----------------------------------------------
0x038A       [6]    ?ICS?lstr1_MyProject
0x0390      [14]    ?ICS?lstr2_MyProject
